ansible==2.9.6
apache-libcloud==2.8.0
apt-clone==0.2.1
apturl==0.5.2
argcomplete==1.8.1
attrs==22.1.0
awscli==1.18.69
beautifulsoup4==4.8.2
blinker==1.4
botocore==1.16.19
Brlapi==0.7.0
certifi==2019.11.28
chardet==5.1.0
charset-normalizer==2.1.1
click==8.1.3
colorama==0.4.6
command-not-found==0.3
configobj==5.0.6
crudini==0.9.3
cryptography==2.8
cupshelpers==1.0
dbus-python==1.2.16
defer==1.0.6
distro==1.4.0
dnspython==1.16.0
docutils==0.16
entrypoints==0.3
Flask==2.2.3
Flask-Cors==3.0.10
Flask-Testing==0.8.1
future==0.18.3
grpcio==1.16.1
httplib2==0.14.0
idna==2.8
ifaddr==0.1.6
IMDbPY==6.8
importlib-metadata==6.3.0
iniparse==0.4
itsdangerous==2.1.2
Jinja2==3.0.0
jmespath==0.9.4
keyring==18.0.1
launchpadlib==1.10.13
lazr.restfulclient==0.14.2
lazr.uri==1.0.3
lockfile==0.12.2
louis==3.12.0
macaroonbakery==1.3.1
Mako==1.1.0
MarkupSafe==2.1.2
multidict==6.0.4
nemo-emblems==5.2.0
netaddr==0.7.19
netifaces==0.10.4
ntlm-auth==1.1.0
oauthlib==3.1.0
onboard==1.4.1
packaging==20.3
PAM==0.4.2
pexpect==4.6.0
Pillow==7.0.0
protobuf==3.6.1
psutil==5.5.1
pyasn1==0.4.2
pycairo==1.16.2
pycrypto==2.6.1
pycups==1.9.73
pycurl==7.43.0.2
Pygments==2.3.1
PyGObject==3.36.0
PyICU==2.4.2
pyinotify==0.9.6
PyJWT==1.7.1
pykerberos==1.1.14
pymacaroons==0.13.0
PyNaCl==1.3.0
pyparsing==2.4.6
pyparted==3.11.2
pyRFC3339==1.1
python-apt==2.0.1+ubuntu0.20.4.1
python-dateutil==2.7.3
python-debian===0.1.36ubuntu1
python-magic==0.4.16
python-xapp==2.2.1
python-xlib==0.23
pytz==2019.3
pywinrm==0.3.0
pyxdg==0.26
PyYAML==5.3.1
reportlab==3.5.34
requests==2.28.1
requests-file==1.4.3
requests-kerberos==0.12.0
requests-ntlm==1.1.0
requests-unixsocket==0.2.0
roman==2.0.0
rsa==4.0
s3transfer==0.3.3
SecretStorage==2.3.1
selinux==3.0
setproctitle==1.1.10
simplejson==3.16.0
six==1.14.0
soupsieve==1.9.5
systemd-python==234
tableprint==0.9.1
tinycss2==1.0.2
tldextract==2.2.1
ubuntu-drivers-common==0.0.0
ufw==0.36
Unidecode==1.1.1
urllib3==1.25.8
wadllib==1.3.3
wcwidth==0.2.6
webencodings==0.5.1
Werkzeug==2.2.3
xkit==0.0.0
xlrd==1.1.0
xmltodict==0.12.0
yarl==1.8.2
youtube-dl==2021.4.26
zipp==3.15.0
